[2021-05-24 00:03:23,339] {taskinstance.py:876} INFO - Dependencies all met for <TaskInstance: my_dag.training_model_A 2021-05-23T00:00:00+00:00 [queued]>
[2021-05-24 00:03:23,405] {taskinstance.py:876} INFO - Dependencies all met for <TaskInstance: my_dag.training_model_A 2021-05-23T00:00:00+00:00 [queued]>
[2021-05-24 00:03:23,413] {taskinstance.py:1067} INFO - 
--------------------------------------------------------------------------------
[2021-05-24 00:03:23,414] {taskinstance.py:1068} INFO - Starting attempt 1 of 1
[2021-05-24 00:03:23,419] {taskinstance.py:1069} INFO - 
--------------------------------------------------------------------------------
[2021-05-24 00:03:23,470] {taskinstance.py:1087} INFO - Executing <Task(PythonOperator): training_model_A> on 2021-05-23T00:00:00+00:00
[2021-05-24 00:03:23,493] {standard_task_runner.py:52} INFO - Started process 45830 to run task
[2021-05-24 00:03:23,518] {standard_task_runner.py:76} INFO - Running: ['***', 'tasks', 'run', 'my_dag', 'training_model_A', '2021-05-23T00:00:00+00:00', '--job-id', '13', '--pool', 'default_pool', '--raw', '--subdir', 'DAGS_FOLDER/***Dag.py', '--cfg-path', '/tmp/tmpya66cu2o', '--error-file', '/tmp/tmpjirhsrdc']
[2021-05-24 00:03:23,521] {standard_task_runner.py:77} INFO - Job 13: Subtask training_model_A
[2021-05-24 00:03:23,715] {logging_mixin.py:104} INFO - Running <TaskInstance: my_dag.training_model_A 2021-05-23T00:00:00+00:00 [running]> on host 83af452f976a
[2021-05-24 00:03:23,981] {taskinstance.py:1282} INFO - Exporting the following env vars:
AIRFLOW_CTX_DAG_OWNER=***
AIRFLOW_CTX_DAG_ID=my_dag
AIRFLOW_CTX_TASK_ID=training_model_A
AIRFLOW_CTX_EXECUTION_DATE=2021-05-23T00:00:00+00:00
AIRFLOW_CTX_DAG_RUN_ID=scheduled__2021-05-23T00:00:00+00:00
[2021-05-24 00:03:23,984] {python.py:151} INFO - Done. Returned value was: 5
[2021-05-24 00:03:24,076] {taskinstance.py:1191} INFO - Marking task as SUCCESS. dag_id=my_dag, task_id=training_model_A, execution_date=20210523T000000, start_date=20210524T000323, end_date=20210524T000324
[2021-05-24 00:03:24,227] {taskinstance.py:1245} INFO - 0 downstream tasks scheduled from follow-on schedule check
[2021-05-24 00:03:24,269] {local_task_job.py:151} INFO - Task exited with return code 0
