[2021-06-22 00:00:02,028] {taskinstance.py:876} INFO - Dependencies all met for <TaskInstance: my_dag.training_model_C 2021-06-21T00:00:00+00:00 [queued]>
[2021-06-22 00:00:02,065] {taskinstance.py:876} INFO - Dependencies all met for <TaskInstance: my_dag.training_model_C 2021-06-21T00:00:00+00:00 [queued]>
[2021-06-22 00:00:02,068] {taskinstance.py:1067} INFO - 
--------------------------------------------------------------------------------
[2021-06-22 00:00:02,069] {taskinstance.py:1068} INFO - Starting attempt 1 of 1
[2021-06-22 00:00:02,073] {taskinstance.py:1069} INFO - 
--------------------------------------------------------------------------------
[2021-06-22 00:00:02,112] {taskinstance.py:1087} INFO - Executing <Task(PythonOperator): training_model_C> on 2021-06-21T00:00:00+00:00
[2021-06-22 00:00:02,122] {standard_task_runner.py:52} INFO - Started process 71938 to run task
[2021-06-22 00:00:02,152] {standard_task_runner.py:76} INFO - Running: ['***', 'tasks', 'run', 'my_dag', 'training_model_C', '2021-06-21T00:00:00+00:00', '--job-id', '112', '--pool', 'default_pool', '--raw', '--subdir', 'DAGS_FOLDER/***Dag.py', '--cfg-path', '/tmp/tmpjoma57db', '--error-file', '/tmp/tmpvvfgraee']
[2021-06-22 00:00:02,157] {standard_task_runner.py:77} INFO - Job 112: Subtask training_model_C
[2021-06-22 00:00:02,282] {logging_mixin.py:104} INFO - Running <TaskInstance: my_dag.training_model_C 2021-06-21T00:00:00+00:00 [running]> on host 83af452f976a
[2021-06-22 00:00:02,444] {taskinstance.py:1282} INFO - Exporting the following env vars:
AIRFLOW_CTX_DAG_OWNER=***
AIRFLOW_CTX_DAG_ID=my_dag
AIRFLOW_CTX_TASK_ID=training_model_C
AIRFLOW_CTX_EXECUTION_DATE=2021-06-21T00:00:00+00:00
AIRFLOW_CTX_DAG_RUN_ID=scheduled__2021-06-21T00:00:00+00:00
[2021-06-22 00:00:02,451] {python.py:151} INFO - Done. Returned value was: 5
[2021-06-22 00:00:02,506] {taskinstance.py:1191} INFO - Marking task as SUCCESS. dag_id=my_dag, task_id=training_model_C, execution_date=20210621T000000, start_date=20210622T000002, end_date=20210622T000002
[2021-06-22 00:00:02,567] {taskinstance.py:1245} INFO - 0 downstream tasks scheduled from follow-on schedule check
[2021-06-22 00:00:02,630] {local_task_job.py:151} INFO - Task exited with return code 0
