[2021-06-18 00:00:01,429] {taskinstance.py:876} INFO - Dependencies all met for <TaskInstance: my_dag.training_model_C 2021-06-17T00:00:00+00:00 [queued]>
[2021-06-18 00:00:01,439] {taskinstance.py:876} INFO - Dependencies all met for <TaskInstance: my_dag.training_model_C 2021-06-17T00:00:00+00:00 [queued]>
[2021-06-18 00:00:01,440] {taskinstance.py:1067} INFO - 
--------------------------------------------------------------------------------
[2021-06-18 00:00:01,442] {taskinstance.py:1068} INFO - Starting attempt 1 of 1
[2021-06-18 00:00:01,447] {taskinstance.py:1069} INFO - 
--------------------------------------------------------------------------------
[2021-06-18 00:00:01,460] {taskinstance.py:1087} INFO - Executing <Task(PythonOperator): training_model_C> on 2021-06-17T00:00:00+00:00
[2021-06-18 00:00:01,470] {standard_task_runner.py:52} INFO - Started process 74710 to run task
[2021-06-18 00:00:01,475] {standard_task_runner.py:76} INFO - Running: ['***', 'tasks', 'run', 'my_dag', 'training_model_C', '2021-06-17T00:00:00+00:00', '--job-id', '91', '--pool', 'default_pool', '--raw', '--subdir', 'DAGS_FOLDER/***Dag.py', '--cfg-path', '/tmp/tmpkea1frbv', '--error-file', '/tmp/tmp1q9ett66']
[2021-06-18 00:00:01,476] {standard_task_runner.py:77} INFO - Job 91: Subtask training_model_C
[2021-06-18 00:00:01,553] {logging_mixin.py:104} INFO - Running <TaskInstance: my_dag.training_model_C 2021-06-17T00:00:00+00:00 [running]> on host 83af452f976a
[2021-06-18 00:00:01,650] {taskinstance.py:1282} INFO - Exporting the following env vars:
AIRFLOW_CTX_DAG_OWNER=***
AIRFLOW_CTX_DAG_ID=my_dag
AIRFLOW_CTX_TASK_ID=training_model_C
AIRFLOW_CTX_EXECUTION_DATE=2021-06-17T00:00:00+00:00
AIRFLOW_CTX_DAG_RUN_ID=scheduled__2021-06-17T00:00:00+00:00
[2021-06-18 00:00:01,653] {python.py:151} INFO - Done. Returned value was: 8
[2021-06-18 00:00:01,694] {taskinstance.py:1191} INFO - Marking task as SUCCESS. dag_id=my_dag, task_id=training_model_C, execution_date=20210617T000000, start_date=20210618T000001, end_date=20210618T000001
[2021-06-18 00:00:01,776] {taskinstance.py:1245} INFO - 1 downstream tasks scheduled from follow-on schedule check
[2021-06-18 00:00:01,811] {local_task_job.py:151} INFO - Task exited with return code 0
