[2021-06-11 00:00:03,319] {taskinstance.py:876} INFO - Dependencies all met for <TaskInstance: my_dag.training_model_A 2021-06-10T00:00:00+00:00 [queued]>
[2021-06-11 00:00:03,372] {taskinstance.py:876} INFO - Dependencies all met for <TaskInstance: my_dag.training_model_A 2021-06-10T00:00:00+00:00 [queued]>
[2021-06-11 00:00:03,379] {taskinstance.py:1067} INFO - 
--------------------------------------------------------------------------------
[2021-06-11 00:00:03,381] {taskinstance.py:1068} INFO - Starting attempt 1 of 1
[2021-06-11 00:00:03,392] {taskinstance.py:1069} INFO - 
--------------------------------------------------------------------------------
[2021-06-11 00:00:03,432] {taskinstance.py:1087} INFO - Executing <Task(PythonOperator): training_model_A> on 2021-06-10T00:00:00+00:00
[2021-06-11 00:00:03,468] {standard_task_runner.py:52} INFO - Started process 59141 to run task
[2021-06-11 00:00:03,501] {standard_task_runner.py:76} INFO - Running: ['***', 'tasks', 'run', 'my_dag', 'training_model_A', '2021-06-10T00:00:00+00:00', '--job-id', '55', '--pool', 'default_pool', '--raw', '--subdir', 'DAGS_FOLDER/***Dag.py', '--cfg-path', '/tmp/tmptkhp93o9', '--error-file', '/tmp/tmp65ov2r4f']
[2021-06-11 00:00:03,504] {standard_task_runner.py:77} INFO - Job 55: Subtask training_model_A
[2021-06-11 00:00:03,607] {logging_mixin.py:104} INFO - Running <TaskInstance: my_dag.training_model_A 2021-06-10T00:00:00+00:00 [running]> on host 83af452f976a
[2021-06-11 00:00:03,770] {taskinstance.py:1282} INFO - Exporting the following env vars:
AIRFLOW_CTX_DAG_OWNER=***
AIRFLOW_CTX_DAG_ID=my_dag
AIRFLOW_CTX_TASK_ID=training_model_A
AIRFLOW_CTX_EXECUTION_DATE=2021-06-10T00:00:00+00:00
AIRFLOW_CTX_DAG_RUN_ID=scheduled__2021-06-10T00:00:00+00:00
[2021-06-11 00:00:03,779] {python.py:151} INFO - Done. Returned value was: 7
[2021-06-11 00:00:03,841] {taskinstance.py:1191} INFO - Marking task as SUCCESS. dag_id=my_dag, task_id=training_model_A, execution_date=20210610T000000, start_date=20210611T000003, end_date=20210611T000003
[2021-06-11 00:00:03,946] {taskinstance.py:1245} INFO - 0 downstream tasks scheduled from follow-on schedule check
[2021-06-11 00:00:03,971] {local_task_job.py:151} INFO - Task exited with return code 0
