[2021-06-26 00:00:24,435] {taskinstance.py:876} INFO - Dependencies all met for <TaskInstance: my_dag.training_model_C 2021-06-25T00:00:00+00:00 [queued]>
[2021-06-26 00:00:24,592] {taskinstance.py:876} INFO - Dependencies all met for <TaskInstance: my_dag.training_model_C 2021-06-25T00:00:00+00:00 [queued]>
[2021-06-26 00:00:24,597] {taskinstance.py:1067} INFO - 
--------------------------------------------------------------------------------
[2021-06-26 00:00:24,601] {taskinstance.py:1068} INFO - Starting attempt 1 of 1
[2021-06-26 00:00:24,634] {taskinstance.py:1069} INFO - 
--------------------------------------------------------------------------------
[2021-06-26 00:00:24,894] {taskinstance.py:1087} INFO - Executing <Task(PythonOperator): training_model_C> on 2021-06-25T00:00:00+00:00
[2021-06-26 00:00:25,074] {standard_task_runner.py:52} INFO - Started process 20008 to run task
[2021-06-26 00:00:25,132] {standard_task_runner.py:76} INFO - Running: ['***', 'tasks', 'run', 'my_dag', 'training_model_C', '2021-06-25T00:00:00+00:00', '--job-id', '131', '--pool', 'default_pool', '--raw', '--subdir', 'DAGS_FOLDER/***Dag.py', '--cfg-path', '/tmp/tmpb5k_bcot', '--error-file', '/tmp/tmpx94kmbkz']
[2021-06-26 00:00:25,144] {standard_task_runner.py:77} INFO - Job 131: Subtask training_model_C
[2021-06-26 00:00:26,012] {logging_mixin.py:104} INFO - Running <TaskInstance: my_dag.training_model_C 2021-06-25T00:00:00+00:00 [running]> on host 83af452f976a
[2021-06-26 00:00:26,494] {taskinstance.py:1282} INFO - Exporting the following env vars:
AIRFLOW_CTX_DAG_OWNER=***
AIRFLOW_CTX_DAG_ID=my_dag
AIRFLOW_CTX_TASK_ID=training_model_C
AIRFLOW_CTX_EXECUTION_DATE=2021-06-25T00:00:00+00:00
AIRFLOW_CTX_DAG_RUN_ID=scheduled__2021-06-25T00:00:00+00:00
[2021-06-26 00:00:26,517] {python.py:151} INFO - Done. Returned value was: 3
[2021-06-26 00:00:26,765] {taskinstance.py:1191} INFO - Marking task as SUCCESS. dag_id=my_dag, task_id=training_model_C, execution_date=20210625T000000, start_date=20210626T000024, end_date=20210626T000026
[2021-06-26 00:00:27,190] {taskinstance.py:1245} INFO - 0 downstream tasks scheduled from follow-on schedule check
[2021-06-26 00:00:27,374] {local_task_job.py:151} INFO - Task exited with return code 0
