[2021-05-22 19:18:41,279] {taskinstance.py:876} INFO - Dependencies all met for <TaskInstance: my_dag.training_model_A 2021-05-22T19:18:36.441786+00:00 [queued]>
[2021-05-22 19:18:41,313] {taskinstance.py:876} INFO - Dependencies all met for <TaskInstance: my_dag.training_model_A 2021-05-22T19:18:36.441786+00:00 [queued]>
[2021-05-22 19:18:41,314] {taskinstance.py:1067} INFO - 
--------------------------------------------------------------------------------
[2021-05-22 19:18:41,315] {taskinstance.py:1068} INFO - Starting attempt 1 of 1
[2021-05-22 19:18:41,320] {taskinstance.py:1069} INFO - 
--------------------------------------------------------------------------------
[2021-05-22 19:18:41,341] {taskinstance.py:1087} INFO - Executing <Task(PythonOperator): training_model_A> on 2021-05-22T19:18:36.441786+00:00
[2021-05-22 19:18:41,353] {standard_task_runner.py:52} INFO - Started process 27669 to run task
[2021-05-22 19:18:41,362] {standard_task_runner.py:76} INFO - Running: ['***', 'tasks', 'run', 'my_dag', 'training_model_A', '2021-05-22T19:18:36.441786+00:00', '--job-id', '5', '--pool', 'default_pool', '--raw', '--subdir', 'DAGS_FOLDER/***Dag.py', '--cfg-path', '/tmp/tmp23l6f75s', '--error-file', '/tmp/tmp6hvg6t9i']
[2021-05-22 19:18:41,364] {standard_task_runner.py:77} INFO - Job 5: Subtask training_model_A
[2021-05-22 19:18:41,489] {logging_mixin.py:104} INFO - Running <TaskInstance: my_dag.training_model_A 2021-05-22T19:18:36.441786+00:00 [running]> on host 83af452f976a
[2021-05-22 19:18:41,682] {taskinstance.py:1282} INFO - Exporting the following env vars:
AIRFLOW_CTX_DAG_OWNER=***
AIRFLOW_CTX_DAG_ID=my_dag
AIRFLOW_CTX_TASK_ID=training_model_A
AIRFLOW_CTX_EXECUTION_DATE=2021-05-22T19:18:36.441786+00:00
AIRFLOW_CTX_DAG_RUN_ID=manual__2021-05-22T19:18:36.441786+00:00
[2021-05-22 19:18:41,692] {python.py:151} INFO - Done. Returned value was: 2
[2021-05-22 19:18:41,743] {taskinstance.py:1191} INFO - Marking task as SUCCESS. dag_id=my_dag, task_id=training_model_A, execution_date=20210522T191836, start_date=20210522T191841, end_date=20210522T191841
[2021-05-22 19:18:41,810] {taskinstance.py:1245} INFO - 1 downstream tasks scheduled from follow-on schedule check
[2021-05-22 19:18:41,873] {local_task_job.py:151} INFO - Task exited with return code 0
